﻿using System;
using System.Collections.Generic;
using System.Linq;
using System.Text;
using System.ComponentModel;
using OpenTap;

namespace {0}
{
    [Display("{1}")]
    public class {1} : Dut
    {
        #region Settings
        // ToDo: Add property here for each parameter the end user should be able to change.
        #endregion

        /// <summary>
        /// Initializes a new instance of this DUT class.
        /// </summary>
        public {1}()
        {
            // ToDo: Set default values for properties / settings.
        }

        /// <summary>
        /// Opens a connection to the DUT represented by this class
        /// </summary>
        public override void Open()
        {
            base.Open();
            // TODO: establish connection to DUT here
        }

        /// <summary>
        /// Closes the connection made to the DUT represented by this class
        /// </summary>
        public override void Close()
        {
            // TODO: close connection to DUT
            base.Close();
        }
    }
}